{
  "images" : [
    {
      "idiom" : "universal",
      "filename" : "640 ◊ 342.png",
      "scale" : "1x"
    },
    {
      "idiom" : "universal",
      "filename" : "1280 ◊ 684.png",
      "scale" : "2x"
    },
    {
      "idiom" : "universal",
      "filename" : "1920 ◊ 1026.png",
      "scale" : "3x"
    }
  ],
  "info" : {
    "version" : 1,
    "author" : "xcode"
  }
}